<svg width="37" height="37" viewBox="0 0 37 37" fill="none" xmlns="http://www.w3.org/2000/svg">
<path fill-rule="evenodd" clip-rule="evenodd" d="M28.9652 28.9652C26.1896 31.7407 22.4252 33.3 18.5 33.3C14.5748 33.3 10.8104 31.7407 8.03482 28.9652C5.25928 26.1896 3.7 22.4252 3.7 18.5C3.7 14.5748 5.25928 10.8104 8.03482 8.03482C10.8104 5.25928 14.5748 3.7 18.5 3.7C22.4252 3.7 26.1896 5.25928 28.9652 8.03482C31.7407 10.8104 33.3 14.5748 33.3 18.5C33.3 22.4252 31.7407 26.1896 28.9652 28.9652ZM0 18.5C0 28.7176 8.28245 37 18.5 37C28.7176 37 37 28.7176 37 18.5C37 8.28245 28.7176 0 18.5 0C8.28245 0 0 8.28245 0 18.5ZM13.0924 12.0732H23.9076C26.0295 12.0732 27.75 13.7734 27.75 15.8731V21.2196C27.75 23.3175 26.0295 25.0195 23.9076 25.0195H13.0924C10.9705 25.0195 9.25 23.3194 9.25 21.2196V15.8731C9.25 13.7752 10.9705 12.0732 13.0924 12.0732ZM16.2504 21.1937L21.3102 18.8072C21.3438 18.7905 21.3721 18.7649 21.392 18.7331C21.412 18.7013 21.4227 18.6646 21.4231 18.6271C21.4235 18.5895 21.4135 18.5526 21.3942 18.5204C21.3749 18.4882 21.3471 18.462 21.3139 18.4446L16.2559 15.9101C16.2251 15.8944 16.1907 15.8868 16.156 15.888C16.1214 15.8893 16.0876 15.8994 16.0579 15.9174C16.0283 15.9353 16.0037 15.9606 15.9866 15.9907C15.9694 16.0209 15.9603 16.0549 15.9599 16.0896V21.0106C15.9601 21.0448 15.9689 21.0785 15.9855 21.1084C16.0021 21.1383 16.0259 21.1636 16.0549 21.1819C16.0839 21.2001 16.117 21.2108 16.1511 21.2129C16.1853 21.2149 16.2194 21.2084 16.2504 21.1937Z" fill="#004D7A"/>
</svg>
