<svg width="26" height="26" viewBox="0 0 26 26" fill="none" xmlns="http://www.w3.org/2000/svg">
<path fill-rule="evenodd" clip-rule="evenodd" d="M20.3539 20.3539C18.4035 22.3043 15.7583 23.4 13 23.4C10.2417 23.4 7.59647 22.3043 5.64609 20.3539C3.69571 18.4035 2.6 15.7583 2.6 13C2.6 10.2417 3.69571 7.59647 5.64609 5.64609C7.59647 3.69571 10.2417 2.6 13 2.6C15.7583 2.6 18.4035 3.69571 20.3539 5.64609C22.3043 7.59647 23.4 10.2417 23.4 13C23.4 15.7583 22.3043 18.4035 20.3539 20.3539ZM0 13C0 20.1799 5.8201 26 13 26C20.1799 26 26 20.1799 26 13C26 5.8201 20.1799 0 13 0C5.8201 0 0 5.8201 0 13ZM9.2001 8.4838H16.7999C18.291 8.4838 19.5 9.6785 19.5 11.154V14.911C19.5 16.3852 18.291 17.5812 16.7999 17.5812H9.2001C7.709 17.5812 6.5 16.3865 6.5 14.911V11.154C6.5 9.6798 7.709 8.4838 9.2001 8.4838ZM11.4192 14.8928L14.9747 13.2158C14.9983 13.2041 15.0182 13.186 15.0322 13.1637C15.0462 13.1413 15.0538 13.1156 15.0541 13.0892C15.0543 13.0628 15.0473 13.0369 15.0338 13.0143C15.0202 12.9917 15.0007 12.9732 14.9773 12.961L11.4231 11.18C11.4014 11.1689 11.3772 11.1636 11.3529 11.1645C11.3285 11.1654 11.3048 11.1725 11.284 11.1851C11.2631 11.1977 11.2459 11.2155 11.2338 11.2366C11.2218 11.2578 11.2153 11.2817 11.2151 11.3061V14.7641C11.2152 14.7882 11.2214 14.8118 11.233 14.8328C11.2447 14.8539 11.2615 14.8716 11.2818 14.8845C11.3022 14.8973 11.3254 14.9048 11.3494 14.9062C11.3735 14.9077 11.3974 14.9031 11.4192 14.8928Z" fill="#004D7A"/>
</svg>
